aboutus.swf Movie Report
-------------------------

Frame #    Frame Bytes    Total Bytes    Scene
-------    -----------    -----------    ----------------
      1          13540          13540    Scene 1 (AS 2.0 Classes Export Frame)
      2             14          13554    
      3              5          13559    
      4              5          13564    
      5             54          13618    
      6              5          13623    
      7              5          13628    
      8              5          13633    
      9              5          13638    
     10         361415         375053    
     11              5         375058    
     12              5         375063    
     13              5         375068    
     14              5         375073    
     15              5         375078    
     16              5         375083    
     17              5         375088    
     18              5         375093    
     19              5         375098    
     20              3         375101    
     21              0         375101    
     22              0         375101    
     23              0         375101    
     24              0         375101    
     25              0         375101    
     26              0         375101    
     27              0         375101    
     28              0         375101    
     29              4         375105    
     30              7         375112    
     31              0         375112    
     32              0         375112    
     33              0         375112    
     34              0         375112    
     35              0         375112    
     36              0         375112    
     37              0         375112    
     38              0         375112    
     39             21         375133    

Scene                        Shape Bytes    Text Bytes    ActionScript Bytes
-------------------------    -----------    ----------    ------------------
Scene 1                                0            20                   307

Symbol                       Shape Bytes    Text Bytes    ActionScript Bytes
-------------------------    -----------    ----------    ------------------
img2_bitmap                            0             0                     0
img3_bitmap                            0             0                     0
img4_bitmap                            0             0                     0
img1_bitmap                            0             0                     0
img2                                   0             0                     0
img1                                   0             0                     0
img3                                   0             0                     0
img4                                   0             0                     0
lumaline_intro                         0             0                     3
mc_xp_1                                0             0                     0
mc_xp_2                                0             0                     0
mc_xp_3                                0             0                     0
mc_fadein_loadbar                      0             0                     0
txt_loading                            0            45                     0
mc_bt_boxes_1                          0             0                     0
mc_link                                0             0                     0
mc_boxes_over_right                    0             0                     0
mc_boxes_over                          0             0                     0
mc_xp                                  0             0                     0
mc_sluts_arentweall                    0             0                     0
 gx_square                            19             0                     0
bt_boxes                               0             0                     0
Grid_Bluming final                 213734             0                     0
Grid_Bluming_kNOTS                 103554             0                     0
GRID                                   0             0                     0
bt_mental                              0             0                     0
mc_lumaline_main                       0             0                     0
bt_mental_one                          0             0                     0
mc_lumaline_one                        0             0                     0
bt_mental_two                          0             0                     0
mc_lumaline_two                        0             0                     0
bt_mental_three                        0             0                     0
mc_lumaline_three                      0             0                     0

Font Name                 Bytes        Characters    
----------------------    ---------    --------------
Arial                          5763     !"#$%&'()*+,-./0123456789:;<=>?@ABCDEFGHIJKLMNOPQRSTUVWXYZ[\]^_`abcdefghijklmnopqrstuvwxyz{|}~ˆ˜–—‘’‚“”„†‡•…‰‹›€™

ActionScript Bytes    Location
------------------    --------
                 0    Scene 1:Layer 1:1
                 0    mc_fadein_loadbar:Layer 2:10
               244    Scene 1:label:1:loadbar(mc_fadein_loadbar)
                45    Scene 1:Layer 1:5
                 0    Scene 1:Layer 1:10
                 0    img2:Layer 5:25
                 0    img3:Layer 5:25
                 0    img4:Layer 5:25
                 0    img1:Layer 5:25
                 3    lumaline_intro:Layer 3:451
                 0    Grid_Bluming final:Layer 3:159
                 0    Grid_Bluming_kNOTS:Layer 3:159
                 0    Scene 1:Layer 1:29
                18    Scene 1:Layer 1:39

Bitmap                     Compressed    Compression
-----------------------    ----------  --------  -----------
background_black_short.gif      7274       40000   Lossless
Operaen                         9044      832512   JPEG Quality=60
Amager strand                   7517      832512   JPEG Quality=60
Nyhavn                         15299      832512   JPEG Quality=60
Marmorkirken                    8906      832512   JPEG Quality=60




