index_luma.swf Movie Report
----------------------------

Frame #    Frame Bytes    Total Bytes    Scene
-------    -----------    -----------    ----------------
      1         376659         376659    Scene 1 (AS 2.0 Classes Export Frame)
      2              0         376659    
      3              0         376659    
      4              0         376659    
      5              0         376659    
      6              0         376659    
      7              0         376659    
      8              0         376659    
      9              0         376659    
     10              0         376659    
     11              0         376659    
     12              0         376659    
     13              0         376659    
     14              0         376659    
     15              0         376659    
     16              0         376659    
     17              0         376659    
     18              0         376659    
     19              0         376659    
     20              0         376659    
     21              0         376659    
     22              0         376659    
     23              0         376659    
     24              0         376659    
     25              0         376659    
     26              0         376659    
     27              0         376659    
     28              0         376659    
     29              0         376659    
     30              0         376659    
     31              0         376659    
     32              0         376659    
     33              0         376659    
     34              0         376659    
     35              0         376659    
     36              0         376659    
     37              0         376659    
     38              0         376659    
     39              0         376659    
     40              0         376659    
     41              0         376659    
     42              0         376659    
     43              0         376659    
     44              0         376659    
     45              0         376659    
     46              0         376659    
     47              0         376659    
     48              0         376659    
     49              0         376659    
     50              0         376659    
     51              0         376659    
     52              0         376659    
     53              0         376659    
     54              0         376659    
     55              0         376659    
     56              0         376659    
     57              0         376659    
     58              0         376659    
     59              0         376659    
     60              0         376659    

Scene                        Shape Bytes    Text Bytes    ActionScript Bytes
-------------------------    -----------    ----------    ------------------
Scene 1                                0             0                     0

Symbol                       Shape Bytes    Text Bytes    ActionScript Bytes
-------------------------    -----------    ----------    ------------------
Symbol 93                              0             0                     0
img2_bitmap                            0             0                     0
img3_bitmap                            0             0                     0
img4_bitmap                            0             0                     0
img1_bitmap                            0             0                     0
img2                                   0             0                     0
img1                                   0             0                     0
img3                                   0             0                     0
img4                                   0             0                     0
lumaline_intro                         0             0                     0
LOGOTXT                                0             0                     0
mc_xp_1                                0             0                     0
mc_xp_2                                0             0                     0
mc_xp_3                                0             0                     0
mc_fadein_loadbar                      0             0                     0
txt_loading                            0             0                     0
mc_bt_boxes_1                          0             0                     0
mc_link                                0             0                     0
mc_boxes_over_right                    0             0                     0
mc_boxes_over                          0             0                     0
mc_xp                                  0             0                     0
mc_sluts_arentweall                    0             0                     0
Click                                  0             0                     0
 gx_square                            17             0                     0
counter_1                              0             0                     0
counter_meeting                        0             0                     0
counter_2                              0             0                     0
bt_boxes                               0             0                     0
moviecontrole                          0             0                     0
Grid_Bluming final                 187841             0                     0
Grid_Bluming_kNOTS                 91010             0                     0
GRID                                   0             0                     0
bt_mental                              0             0                     0
mc_lumaline_main                       0             0                     0
bt_mental_one                          0             0                     0
mc_lumaline_one                        0             0                     0
bt_mental_two                          0             0                     0
mc_lumaline_two                        0             0                     0
bt_mental_three                        0             0                     0
mc_lumaline_three                      0             0                     0

ActionScript Bytes    Location
------------------    --------
               104    
                 0    Grid_Bluming final:Layer 3:159
                 0    Grid_Bluming_kNOTS:Layer 3:159
             50961    ActionScript 2.0 Classes

Bitmap                     Compressed    Compression
-----------------------    ----------  --------  -----------
Billede 6.jpg                  38390     1536000   Imported JPEG=102
background_black_short.gif      6393       40000   Lossless




